<?xml version="1.0" encoding="utf-8"?>
<!-- Generator: Adobe Illustrator 15.0.0, SVG Export Plug-In . SVG Version: 6.00 Build 0)  -->
<!DOCTYPE svg PUBLIC "-//W3C//DTD SVG 1.1//EN" "http://www.w3.org/Graphics/SVG/1.1/DTD/svg11.dtd">
<svg version="1.1" id="Calque_1" xmlns="http://www.w3.org/2000/svg" xmlns:xlink="http://www.w3.org/1999/xlink" x="0px" y="0px"
	 width="32px" height="32px" viewBox="-1 -1 32 32" enable-background="new -1 -1 32 32" xml:space="preserve">
<g id="mYxwaw.tif_7_">
	<g>
		<path fill="#FFFFFF" d="M15.754,26.936c-0.131,0-0.25,0-0.369,0c-3.609,0-7.219,0-10.829,0.002c-0.419,0-0.821-0.041-1.13-0.373
			c-0.326-0.35-0.422-0.764-0.361-1.23c0.025-0.195,0.063-0.393,0.063-0.59c0.002-6.5,0.002-12.998,0.001-19.496
			c0-0.385-0.072-0.772-0.029-1.149C3.165,3.507,3.637,3.114,4.23,3.077c0.155-0.008,0.311-0.014,0.466-0.014
			c6.876,0,13.75-0.002,20.627,0.006c0.305,0,0.631,0.021,0.91,0.129c0.535,0.201,0.824,0.875,0.684,1.433
			c-0.033,0.138-0.043,0.284-0.043,0.429c-0.002,6.632-0.002,13.263,0,19.894c0,0.293,0.072,0.594,0.033,0.881
			c-0.1,0.711-0.533,1.088-1.266,1.094c-1.689,0.014-3.379,0.008-5.066,0.008c-0.309,0-0.615,0-0.955,0c0-0.154,0-0.262,0-0.371
			c0-2.811,0.006-5.619-0.006-8.432c0-0.303,0.078-0.402,0.391-0.393c0.787,0.021,1.576,0.002,2.365,0.008
			c0.254,0.002,0.367-0.076,0.398-0.355c0.111-0.967,0.258-1.928,0.389-2.893c0.061-0.453,0.049-0.46-0.42-0.461
			c-0.934-0.002-1.867-0.009-2.799,0.003c-0.25,0.003-0.33-0.079-0.324-0.326c0.014-0.745,0.01-1.488,0.012-2.232
			c0.006-0.847,0.516-1.371,1.365-1.387c0.656-0.012,1.311-0.012,1.967,0.002c0.287,0.006,0.418-0.064,0.41-0.389
			c-0.023-0.889-0.018-1.777,0-2.666c0.004-0.299-0.121-0.389-0.391-0.396c-0.932-0.021-1.863-0.099-2.793-0.067
			c-2.09,0.072-3.798,1.176-4.243,3.488c-0.162,0.84-0.123,1.719-0.164,2.578c-0.016,0.344-0.018,0.69,0.002,1.034
			c0.016,0.271-0.064,0.37-0.352,0.364c-0.822-0.019-1.645,0.001-2.467-0.012c-0.252-0.004-0.327,0.087-0.324,0.327
			c0.009,0.988,0.016,1.979-0.002,2.965c-0.006,0.35,0.141,0.432,0.457,0.426c0.787-0.014,1.576-0.002,2.365-0.006
			c0.205-0.002,0.326,0.029,0.326,0.289c-0.01,2.887-0.006,5.775-0.006,8.664C15.775,26.762,15.764,26.826,15.754,26.936z"/>
	</g>
</g>
</svg>
