<?xml version="1.0" encoding="utf-8"?>
<!-- Generator: Adobe Illustrator 15.0.0, SVG Export Plug-In . SVG Version: 6.00 Build 0)  -->
<!DOCTYPE svg PUBLIC "-//W3C//DTD SVG 1.1//EN" "http://www.w3.org/Graphics/SVG/1.1/DTD/svg11.dtd">
<svg version="1.1" id="Layer_1" xmlns="http://www.w3.org/2000/svg" xmlns:xlink="http://www.w3.org/1999/xlink" x="0px" y="0px"
	 width="405.98px" height="275px" viewBox="213.5 158.5 405.98 275" enable-background="new 213.5 158.5 405.98 275"
	 xml:space="preserve">
<title>wowiwe-imago-1</title>
<path d="M468.299,275.393c0.203,0.206,0.267,0.477,0.186,0.803l-18.187,63.096c-0.246,0.908-0.949,1.362-2.102,1.362h-3.343
	c-1.234,0-1.979-0.413-2.229-1.236l-17.317-53.944c-0.248-0.657-0.456-0.988-0.62-0.988c-0.166,0-0.369,0.331-0.615,0.988
	l-16.087,53.818c-0.247,0.908-0.907,1.362-1.978,1.362h-3.711c-1.238,0-1.98-0.413-2.229-1.236L380.77,276.32l-0.124-0.37
	c0-0.577,0.37-0.868,1.112-0.868h2.843c0.745,0,1.243,0.331,1.487,0.988l17.199,56.293c0.246,0.826,0.532,1.237,0.867,1.237
	c0.326,0,0.615-0.45,0.863-1.36l17.073-56.415c0.162-0.493,0.573-0.743,1.235-0.743h2.845c0.746,0,1.239,0.331,1.485,0.988
	l18.065,56.293c0.246,0.826,0.492,1.237,0.74,1.237c0.331,0,0.619-0.45,0.865-1.36l16.456-56.29
	c0.246-0.577,0.782-0.868,1.609-0.868h2.102C467.824,275.083,468.091,275.187,468.299,275.393"/>
<path d="M480.447,339.168c0,0.579-0.084,0.973-0.247,1.177c-0.167,0.208-0.578,0.31-1.238,0.31h-2.103
	c-0.578,0-0.949-0.084-1.116-0.249c-0.167-0.164-0.243-0.497-0.243-0.989V276.32c0-0.494,0.076-0.823,0.243-0.989
	c0.167-0.164,0.457-0.248,0.868-0.248h2.721c0.412,0,0.701,0.083,0.868,0.248c0.163,0.167,0.247,0.495,0.247,0.989V339.168z"/>
<path d="M537.601,339.291v-6.308c0-0.741-0.166-1.113-0.492-1.113c-0.251,0-0.583,0.207-0.995,0.617
	c-2.31,2.395-4.989,4.56-8.038,6.497c-3.053,1.937-7.095,2.904-12.126,2.904c-5.36,0-10.206-1.236-14.536-3.71
	s-7.752-6.165-10.268-11.071c-2.518-4.908-3.773-10.91-3.773-18.001c0-6.932,1.237-13.071,3.713-18.433
	c2.473-5.362,5.975-9.505,10.513-12.436c4.534-2.928,9.815-4.392,15.839-4.392c4.037,0,7.422,0.618,10.144,1.855
	c2.721,1.238,5.401,2.845,8.041,4.827c0.66,0.493,1.071,0.742,1.236,0.742c0.327,0,0.499-0.537,0.499-1.61V250.09
	c0-0.822,0.366-1.235,1.112-1.235h2.844c0.659,0,0.989,0.372,0.989,1.115v89.199c0,0.577-0.104,0.973-0.312,1.176
	c-0.205,0.206-0.597,0.308-1.172,0.308h-1.978C538.013,340.652,537.601,340.199,537.601,339.291 M527.829,280.898
	c-3.219-1.566-6.641-2.352-10.271-2.352c-4.868,0-9.176,1.218-12.928,3.65c-3.756,2.435-6.703,5.92-8.847,10.456
	c-2.146,4.536-3.215,9.855-3.215,15.959c0,6.27,1.092,11.549,3.277,15.834c2.186,4.289,5.092,7.487,8.722,9.588
	c3.63,2.104,7.63,3.155,12,3.155c3.793,0,7.278-0.928,10.454-2.782c3.175-1.859,5.692-4.145,7.546-6.865
	c1.857-2.726,2.788-5.361,2.788-7.921v-31.67C534.216,284.815,531.044,282.467,527.829,280.898"/>
<path d="M559.451,323.952c2.224,4.042,5.238,7.258,9.03,9.651c3.793,2.39,7.961,3.584,12.499,3.584
	c9.812,0,17.027-3.831,21.646-11.504c0.411-0.66,0.868-0.822,1.36-0.495l2.848,1.855c0.492,0.331,0.534,0.741,0.127,1.235
	c-5.695,9.076-14.355,13.611-25.981,13.611c-5.86,0-11.077-1.399-15.652-4.208c-4.578-2.802-8.124-6.74-10.642-11.814
	c-2.518-5.072-3.774-10.907-3.774-17.505c0-7.094,1.279-13.238,3.838-18.436c2.555-5.193,6.102-9.171,10.639-11.938
	c4.536-2.761,9.731-4.145,15.592-4.145c8.737,0,15.646,2.91,20.72,8.723c5.072,5.814,7.607,13.879,7.607,24.185v0.62
	c0,0.579-0.104,1.031-0.308,1.36c-0.208,0.331-0.639,0.495-1.299,0.495h-50.85c-0.492,0-0.74,0.578-0.74,1.733
	C556.111,315.582,557.223,319.912,559.451,323.952 M602.01,304.776c0.82,0,1.381-0.126,1.671-0.373
	c0.289-0.247,0.431-0.7,0.431-1.36c0-4.533-0.946-8.679-2.845-12.433c-1.899-3.754-4.597-6.703-8.103-8.845
	c-3.505-2.146-7.61-3.217-12.311-3.217c-5.197,0-9.65,1.277-13.361,3.833c-3.711,2.559-6.536,5.859-8.475,9.9
	c-1.938,4.041-2.866,8.207-2.78,12.495H602.01z"/>
<path d="M468.299,275.393c0.203,0.206,0.267,0.477,0.186,0.803l-18.187,63.096c-0.246,0.908-0.949,1.362-2.102,1.362h-3.343
	c-1.234,0-1.979-0.413-2.229-1.236l-17.317-53.944c-0.248-0.657-0.456-0.988-0.62-0.988c-0.166,0-0.369,0.331-0.615,0.988
	l-16.087,53.818c-0.247,0.908-0.907,1.362-1.978,1.362h-3.711c-1.238,0-1.98-0.413-2.229-1.236L380.77,276.32l-0.124-0.37
	c0-0.577,0.37-0.868,1.112-0.868h2.843c0.745,0,1.243,0.331,1.487,0.988l17.199,56.293c0.246,0.826,0.532,1.237,0.867,1.237
	c0.326,0,0.615-0.45,0.863-1.36l17.073-56.415c0.162-0.493,0.573-0.743,1.235-0.743h2.845c0.746,0,1.239,0.331,1.485,0.988
	l18.065,56.293c0.246,0.826,0.492,1.237,0.74,1.237c0.331,0,0.619-0.45,0.865-1.36l16.456-56.29
	c0.246-0.577,0.782-0.868,1.609-0.868h2.102C467.824,275.083,468.091,275.187,468.299,275.393"/>
<path d="M480.447,339.168c0,0.579-0.084,0.973-0.247,1.177c-0.167,0.208-0.578,0.31-1.238,0.31h-2.103
	c-0.578,0-0.949-0.084-1.116-0.249c-0.167-0.164-0.243-0.497-0.243-0.989V276.32c0-0.494,0.076-0.823,0.243-0.989
	c0.167-0.164,0.457-0.248,0.868-0.248h2.721c0.412,0,0.701,0.083,0.868,0.248c0.163,0.167,0.247,0.495,0.247,0.989V339.168z"/>
<path d="M537.601,339.291v-6.308c0-0.741-0.166-1.113-0.492-1.113c-0.251,0-0.583,0.207-0.995,0.617
	c-2.31,2.395-4.989,4.56-8.038,6.497c-3.053,1.937-7.095,2.904-12.126,2.904c-5.36,0-10.206-1.236-14.536-3.71
	s-7.752-6.165-10.268-11.071c-2.518-4.908-3.773-10.91-3.773-18.001c0-6.932,1.237-13.071,3.713-18.433
	c2.473-5.362,5.975-9.505,10.513-12.436c4.534-2.928,9.815-4.392,15.839-4.392c4.037,0,7.422,0.618,10.144,1.855
	c2.721,1.238,5.401,2.845,8.041,4.827c0.66,0.493,1.071,0.742,1.236,0.742c0.327,0,0.499-0.537,0.499-1.61V250.09
	c0-0.822,0.366-1.235,1.112-1.235h2.844c0.659,0,0.989,0.372,0.989,1.115v89.199c0,0.577-0.104,0.973-0.312,1.176
	c-0.205,0.206-0.597,0.308-1.172,0.308h-1.978C538.013,340.652,537.601,340.199,537.601,339.291 M527.829,280.898
	c-3.219-1.566-6.641-2.352-10.271-2.352c-4.868,0-9.176,1.218-12.928,3.65c-3.756,2.435-6.703,5.92-8.847,10.456
	c-2.146,4.536-3.215,9.855-3.215,15.959c0,6.27,1.092,11.549,3.277,15.834c2.186,4.289,5.092,7.487,8.722,9.588
	c3.63,2.104,7.63,3.155,12,3.155c3.793,0,7.278-0.928,10.454-2.782c3.175-1.859,5.692-4.145,7.546-6.865
	c1.857-2.726,2.788-5.361,2.788-7.921v-31.67C534.216,284.815,531.044,282.467,527.829,280.898"/>
<path d="M559.451,323.952c2.224,4.042,5.238,7.258,9.03,9.651c3.793,2.39,7.961,3.584,12.499,3.584
	c9.812,0,17.027-3.831,21.646-11.504c0.411-0.66,0.868-0.822,1.36-0.495l2.848,1.855c0.492,0.331,0.534,0.741,0.127,1.235
	c-5.695,9.076-14.355,13.611-25.981,13.611c-5.86,0-11.077-1.399-15.652-4.208c-4.578-2.802-8.124-6.74-10.642-11.814
	c-2.518-5.072-3.774-10.907-3.774-17.505c0-7.094,1.279-13.238,3.838-18.436c2.555-5.193,6.102-9.171,10.639-11.938
	c4.536-2.761,9.731-4.145,15.592-4.145c8.737,0,15.646,2.91,20.72,8.723c5.072,5.814,7.607,13.879,7.607,24.185v0.62
	c0,0.579-0.104,1.031-0.308,1.36c-0.208,0.331-0.639,0.495-1.299,0.495h-50.85c-0.492,0-0.74,0.578-0.74,1.733
	C556.111,315.582,557.223,319.912,559.451,323.952 M602.01,304.776c0.82,0,1.381-0.126,1.671-0.373
	c0.289-0.247,0.431-0.7,0.431-1.36c0-4.533-0.946-8.679-2.845-12.433c-1.899-3.754-4.597-6.703-8.103-8.845
	c-3.505-2.146-7.61-3.217-12.311-3.217c-5.197,0-9.65,1.277-13.361,3.833c-3.711,2.559-6.536,5.859-8.475,9.9
	c-1.938,4.041-2.866,8.207-2.78,12.495H602.01z"/>
<path d="M309.11,354.98c0.203,0.206,0.267,0.477,0.186,0.804l-18.187,63.096c-0.249,0.905-0.949,1.362-2.102,1.362h-3.339
	c-1.238,0-1.981-0.413-2.228-1.239l-17.321-53.941c-0.249-0.659-0.454-0.987-0.62-0.987s-0.37,0.328-0.616,0.987l-16.085,53.818
	c-0.248,0.905-0.908,1.362-1.98,1.362h-3.711c-1.236,0-1.979-0.413-2.226-1.239l-19.301-63.097l-0.124-0.367
	c0-0.578,0.375-0.868,1.111-0.868h2.848c0.742,0,1.238,0.328,1.485,0.988l17.196,56.293c0.249,0.824,0.535,1.237,0.868,1.237
	c0.325,0,0.614-0.453,0.862-1.36l17.073-56.415c0.165-0.496,0.579-0.743,1.239-0.743h2.842c0.746,0,1.238,0.328,1.485,0.988
	l18.064,56.293c0.249,0.824,0.493,1.237,0.741,1.237c0.33,0,0.619-0.453,0.866-1.36l16.455-56.29
	c0.246-0.578,0.782-0.868,1.609-0.868h2.102C308.636,354.671,308.902,354.774,309.11,354.98"/>
<path d="M318.264,403.54c2.226,4.041,5.238,7.257,9.033,9.65c3.791,2.392,7.957,3.585,12.496,3.585
	c9.812,0,17.029-3.832,21.648-11.504c0.412-0.657,0.866-0.822,1.361-0.496l2.845,1.856c0.493,0.331,0.536,0.74,0.124,1.236
	c-5.69,9.074-14.351,13.609-25.979,13.609c-5.863,0-11.074-1.399-15.653-4.207c-4.579-2.803-8.123-6.741-10.64-11.814
	c-2.518-5.073-3.775-10.907-3.775-17.506c0-7.093,1.282-13.236,3.838-18.435c2.557-5.194,6.102-9.172,10.641-11.938
	c4.533-2.76,9.727-4.144,15.59-4.144c8.739,0,15.648,2.909,20.72,8.723c5.073,5.813,7.609,13.878,7.609,24.184v0.622
	c0,0.577-0.106,1.03-0.31,1.359c-0.205,0.331-0.637,0.494-1.302,0.494h-50.845c-0.494,0-0.742,0.579-0.742,1.734
	C314.924,395.169,316.035,399.5,318.264,403.54 M360.824,384.363c0.82,0,1.379-0.124,1.67-0.372
	c0.287-0.248,0.432-0.701,0.432-1.361c0-4.533-0.949-8.679-2.845-12.433c-1.901-3.753-4.599-6.701-8.103-8.844
	c-3.508-2.146-7.609-3.218-12.311-3.218c-5.197,0-9.652,1.278-13.363,3.834c-3.711,2.559-6.536,5.858-8.475,9.898
	c-1.939,4.042-2.866,8.208-2.785,12.495H360.824z"/>
<path d="M377.402,420.24c-0.5,0-0.85-0.122-1.053-0.371c-0.207-0.248-0.311-0.659-0.311-1.237V329.68
	c0-0.823,0.371-1.238,1.115-1.238h2.845c0.66,0,0.987,0.456,0.987,1.36v31.304c0,0.823,0.166,1.235,0.495,1.235
	c0.33,0,0.7-0.206,1.112-0.621c2.23-1.975,4.951-3.852,8.168-5.627c3.219-1.771,7.587-2.658,13.112-2.658
	c8.99,0,15.717,3.153,20.169,9.465c4.452,6.311,6.681,14.411,6.681,24.309c0,10.642-2.495,19.013-7.485,25.114
	c-4.99,6.104-11.897,9.155-20.725,9.155c-5.442,0-9.834-1.053-13.176-3.157c-3.338-2.1-5.75-4.222-7.237-6.37
	c-0.246-0.409-0.493-0.617-0.741-0.617c-0.33,0-0.498,0.33-0.498,0.989l-0.243,6.31c0,0.662-0.124,1.098-0.37,1.3
	c-0.249,0.206-0.746,0.309-1.485,0.309H377.402z M380.986,398.343c0,3.217,1.01,6.248,3.031,9.093
	c2.02,2.849,4.66,5.114,7.919,6.807c3.259,1.688,6.62,2.533,10.085,2.533c6.843,0,12.45-2.514,16.823-7.546
	c4.37-5.029,6.559-12.373,6.559-22.021c0-8.988-1.938-16.084-5.812-21.277c-3.883-5.198-9.405-7.795-16.58-7.795
	c-4.373,0-8.476,0.988-12.312,2.97c-3.833,1.979-7.069,4.578-9.712,7.794V398.343z"/>
<path d="M309.11,354.98c0.203,0.206,0.267,0.477,0.186,0.804l-18.187,63.096c-0.249,0.905-0.949,1.362-2.102,1.362h-3.339
	c-1.238,0-1.981-0.413-2.228-1.239l-17.321-53.941c-0.249-0.659-0.454-0.987-0.62-0.987s-0.37,0.328-0.616,0.987l-16.085,53.818
	c-0.248,0.905-0.908,1.362-1.98,1.362h-3.711c-1.236,0-1.979-0.413-2.226-1.239l-19.301-63.097l-0.124-0.367
	c0-0.578,0.375-0.868,1.111-0.868h2.848c0.742,0,1.238,0.328,1.485,0.988l17.196,56.293c0.249,0.824,0.535,1.237,0.868,1.237
	c0.325,0,0.614-0.453,0.862-1.36l17.073-56.415c0.165-0.496,0.579-0.743,1.239-0.743h2.842c0.746,0,1.238,0.328,1.485,0.988
	l18.064,56.293c0.249,0.824,0.493,1.237,0.741,1.237c0.33,0,0.619-0.453,0.866-1.36l16.455-56.29
	c0.246-0.578,0.782-0.868,1.609-0.868h2.102C308.636,354.671,308.902,354.774,309.11,354.98"/>
<path d="M318.264,403.54c2.226,4.041,5.238,7.257,9.033,9.65c3.791,2.392,7.957,3.585,12.496,3.585
	c9.812,0,17.029-3.832,21.648-11.504c0.412-0.657,0.866-0.822,1.361-0.496l2.845,1.856c0.493,0.331,0.536,0.74,0.124,1.236
	c-5.69,9.074-14.351,13.609-25.979,13.609c-5.863,0-11.074-1.399-15.653-4.207c-4.579-2.803-8.123-6.741-10.64-11.814
	c-2.518-5.073-3.775-10.907-3.775-17.506c0-7.093,1.282-13.236,3.838-18.435c2.557-5.194,6.102-9.172,10.641-11.938
	c4.533-2.76,9.727-4.144,15.59-4.144c8.739,0,15.648,2.909,20.72,8.723c5.073,5.813,7.609,13.878,7.609,24.184v0.622
	c0,0.577-0.106,1.03-0.31,1.359c-0.205,0.331-0.637,0.494-1.302,0.494h-50.845c-0.494,0-0.742,0.579-0.742,1.734
	C314.924,395.169,316.035,399.5,318.264,403.54 M360.824,384.363c0.82,0,1.379-0.124,1.67-0.372
	c0.287-0.248,0.432-0.701,0.432-1.361c0-4.533-0.949-8.679-2.845-12.433c-1.901-3.753-4.599-6.701-8.103-8.844
	c-3.508-2.146-7.609-3.218-12.311-3.218c-5.197,0-9.652,1.278-13.363,3.834c-3.711,2.559-6.536,5.858-8.475,9.898
	c-1.939,4.042-2.866,8.208-2.785,12.495H360.824z"/>
<path d="M377.402,420.24c-0.5,0-0.85-0.122-1.053-0.371c-0.207-0.248-0.311-0.659-0.311-1.237V329.68
	c0-0.823,0.371-1.238,1.115-1.238h2.845c0.66,0,0.987,0.456,0.987,1.36v31.304c0,0.823,0.166,1.235,0.495,1.235
	c0.33,0,0.7-0.206,1.112-0.621c2.23-1.975,4.951-3.852,8.168-5.627c3.219-1.771,7.587-2.658,13.112-2.658
	c8.99,0,15.717,3.153,20.169,9.465c4.452,6.311,6.681,14.411,6.681,24.309c0,10.642-2.495,19.013-7.485,25.114
	c-4.99,6.104-11.897,9.155-20.725,9.155c-5.442,0-9.834-1.053-13.176-3.157c-3.338-2.1-5.75-4.222-7.237-6.37
	c-0.246-0.409-0.493-0.617-0.741-0.617c-0.33,0-0.498,0.33-0.498,0.989l-0.243,6.31c0,0.662-0.124,1.098-0.37,1.3
	c-0.249,0.206-0.746,0.309-1.485,0.309H377.402z M380.986,398.343c0,3.217,1.01,6.248,3.031,9.093
	c2.02,2.849,4.66,5.114,7.919,6.807c3.259,1.688,6.62,2.533,10.085,2.533c6.843,0,12.45-2.514,16.823-7.546
	c4.37-5.029,6.559-12.373,6.559-22.021c0-8.988-1.938-16.084-5.812-21.277c-3.883-5.198-9.405-7.795-16.58-7.795
	c-4.373,0-8.476,0.988-12.312,2.97c-3.833,1.979-7.069,4.578-9.712,7.794V398.343z"/>
<path d="M337.547,195.35c0.205,0.206,0.269,0.477,0.187,0.803l-18.187,63.096c-0.248,0.908-0.949,1.362-2.102,1.362h-3.34
	c-1.239,0-1.98-0.413-2.229-1.237l-17.321-53.943c-0.249-0.661-0.456-0.989-0.62-0.989s-0.37,0.329-0.613,0.989l-16.088,53.818
	c-0.246,0.908-0.906,1.362-1.979,1.362h-3.712c-1.233,0-1.979-0.413-2.228-1.237l-19.296-63.099l-0.127-0.368
	c0-0.578,0.373-0.868,1.111-0.868h2.848c0.742,0,1.239,0.328,1.488,0.988l17.194,56.293c0.248,0.824,0.538,1.237,0.868,1.237
	c0.324,0,0.616-0.454,0.863-1.36l17.074-56.416c0.164-0.495,0.576-0.743,1.236-0.743h2.846c0.743,0,1.238,0.328,1.484,0.988
	l18.062,56.293c0.248,0.824,0.494,1.237,0.741,1.237c0.329,0,0.618-0.454,0.868-1.36l16.453-56.291
	c0.248-0.578,0.781-0.868,1.609-0.868h2.102C337.072,195.04,337.341,195.144,337.547,195.35"/>
<path d="M352.391,257.58c-4.534-2.848-8.041-6.808-10.514-11.878c-2.473-5.072-3.714-10.907-3.714-17.507
	c0-6.679,1.257-12.618,3.774-17.812c2.516-5.198,6.063-9.257,10.643-12.188c4.576-2.928,9.836-4.393,15.773-4.393
	c5.854,0,11.049,1.446,15.587,4.33c4.534,2.887,8.06,6.926,10.577,12.124c2.514,5.199,3.774,11.093,3.774,17.69
	c0,6.601-1.261,12.477-3.774,17.631c-2.518,5.157-6.043,9.154-10.577,12.002c-4.538,2.843-9.772,4.267-15.712,4.267
	C362.208,261.847,356.928,260.423,352.391,257.58 M386.477,249.167c4.411-5.32,6.617-12.391,6.617-21.22
	c0-5.852-1.013-10.988-3.031-15.4c-2.022-4.41-4.906-7.855-8.658-10.333c-3.756-2.474-8.104-3.709-13.051-3.709
	c-5.033,0-9.428,1.236-13.18,3.709c-3.751,2.478-6.662,5.938-8.721,10.395c-2.063,4.452-3.092,9.566-3.092,15.338
	c0,5.775,1.028,10.87,3.092,15.279c2.059,4.413,4.988,7.836,8.782,10.271c3.795,2.432,8.206,3.646,13.241,3.646
	C376.062,257.144,382.062,254.484,386.477,249.167"/>
<path d="M417.466,257.58c-4.538-2.848-8.041-6.808-10.517-11.878c-2.469-5.072-3.713-10.907-3.713-17.507
	c0-6.679,1.257-12.618,3.774-17.812c2.519-5.198,6.066-9.257,10.643-12.188c4.576-2.928,9.837-4.393,15.772-4.393
	c5.854,0,11.052,1.446,15.586,4.33c4.536,2.887,8.063,6.926,10.58,12.124c2.515,5.199,3.773,11.093,3.773,17.69
	c0,6.601-1.259,12.477-3.773,17.631c-2.517,5.157-6.044,9.154-10.58,12.002c-4.534,2.843-9.771,4.267-15.708,4.267
	C427.282,261.847,422.002,260.423,417.466,257.58 M451.552,249.167c4.412-5.32,6.615-12.391,6.615-21.22
	c0-5.852-1.01-10.988-3.03-15.4c-2.021-4.41-4.906-7.855-8.658-10.333c-3.754-2.474-8.105-3.709-13.053-3.709
	c-5.03,0-9.424,1.236-13.176,3.709c-3.751,2.478-6.662,5.938-8.723,10.395c-2.062,4.452-3.092,9.566-3.092,15.338
	c0,5.775,1.029,10.87,3.092,15.279c2.061,4.413,4.989,7.836,8.781,10.271c3.797,2.432,8.209,3.646,13.242,3.646
	C441.138,257.144,447.138,254.484,451.552,249.167"/>
<path d="M518.444,259.248v-6.308c0-0.741-0.167-1.114-0.497-1.114c-0.248,0-0.578,0.207-0.99,0.618
	c-2.309,2.394-4.991,4.56-8.04,6.497c-3.052,1.937-7.095,2.904-12.124,2.904c-5.362,0-10.208-1.236-14.538-3.709
	s-7.755-6.166-10.268-11.071c-2.518-4.907-3.774-10.909-3.774-18.001c0-6.93,1.238-13.071,3.714-18.433
	c2.47-5.362,5.977-9.504,10.516-12.435c4.533-2.928,9.812-4.393,15.836-4.393c4.039,0,7.422,0.619,10.146,1.856
	c2.721,1.238,5.396,2.846,8.041,4.826c0.66,0.495,1.072,0.742,1.234,0.742c0.327,0,0.497-0.537,0.497-1.61v-29.57
	c0-0.821,0.37-1.235,1.111-1.235h2.849c0.654,0,0.987,0.372,0.987,1.115v89.199c0,0.577-0.104,0.972-0.31,1.175
	c-0.208,0.206-0.597,0.308-1.176,0.308h-1.977C518.856,260.608,518.444,260.157,518.444,259.248 M508.67,200.854
	c-3.216-1.566-6.64-2.35-10.268-2.35c-4.868,0-9.175,1.218-12.932,3.648c-3.752,2.435-6.699,5.922-8.846,10.456
	c-2.143,4.536-3.214,9.855-3.214,15.959c0,6.269,1.089,11.548,3.276,15.835c2.187,4.286,5.093,7.485,8.725,9.586
	c3.625,2.104,7.628,3.155,11.998,3.155c3.795,0,7.28-0.926,10.452-2.782c3.174-1.859,5.696-4.145,7.549-6.866
	c1.856-2.723,2.785-5.361,2.785-7.918v-31.67C515.06,204.771,511.886,202.423,508.67,200.854"/>
<path d="M337.547,195.35c0.205,0.206,0.269,0.477,0.187,0.803l-18.187,63.096c-0.248,0.908-0.949,1.362-2.102,1.362h-3.34
	c-1.239,0-1.98-0.413-2.229-1.237l-17.321-53.943c-0.249-0.661-0.456-0.989-0.62-0.989s-0.37,0.329-0.613,0.989l-16.088,53.818
	c-0.246,0.908-0.906,1.362-1.979,1.362h-3.712c-1.233,0-1.979-0.413-2.228-1.237l-19.296-63.099l-0.127-0.368
	c0-0.578,0.373-0.868,1.111-0.868h2.848c0.742,0,1.239,0.328,1.488,0.988l17.194,56.293c0.248,0.824,0.538,1.237,0.868,1.237
	c0.324,0,0.616-0.454,0.863-1.36l17.074-56.416c0.164-0.495,0.576-0.743,1.236-0.743h2.846c0.743,0,1.238,0.328,1.484,0.988
	l18.062,56.293c0.248,0.824,0.494,1.237,0.741,1.237c0.329,0,0.618-0.454,0.868-1.36l16.453-56.291
	c0.248-0.578,0.781-0.868,1.609-0.868h2.102C337.072,195.04,337.341,195.144,337.547,195.35"/>
<path d="M352.391,257.58c-4.534-2.848-8.041-6.808-10.514-11.878c-2.473-5.072-3.714-10.907-3.714-17.507
	c0-6.679,1.257-12.618,3.774-17.812c2.516-5.198,6.063-9.257,10.643-12.188c4.576-2.928,9.836-4.393,15.773-4.393
	c5.854,0,11.049,1.446,15.587,4.33c4.534,2.887,8.06,6.926,10.577,12.124c2.514,5.199,3.774,11.093,3.774,17.69
	c0,6.601-1.261,12.477-3.774,17.631c-2.518,5.157-6.043,9.154-10.577,12.002c-4.538,2.843-9.772,4.267-15.712,4.267
	C362.208,261.847,356.928,260.423,352.391,257.58 M386.477,249.167c4.411-5.32,6.617-12.391,6.617-21.22
	c0-5.852-1.013-10.988-3.031-15.4c-2.022-4.41-4.906-7.855-8.658-10.333c-3.756-2.474-8.104-3.709-13.051-3.709
	c-5.033,0-9.428,1.236-13.18,3.709c-3.751,2.478-6.662,5.938-8.721,10.395c-2.063,4.452-3.092,9.566-3.092,15.338
	c0,5.775,1.028,10.87,3.092,15.279c2.059,4.413,4.988,7.836,8.782,10.271c3.795,2.432,8.206,3.646,13.241,3.646
	C376.062,257.144,382.062,254.484,386.477,249.167"/>
<path d="M417.466,257.58c-4.538-2.848-8.041-6.808-10.517-11.878c-2.469-5.072-3.713-10.907-3.713-17.507
	c0-6.679,1.257-12.618,3.774-17.812c2.519-5.198,6.066-9.257,10.643-12.188c4.576-2.928,9.837-4.393,15.772-4.393
	c5.854,0,11.052,1.446,15.586,4.33c4.536,2.887,8.063,6.926,10.58,12.124c2.515,5.199,3.773,11.093,3.773,17.69
	c0,6.601-1.259,12.477-3.773,17.631c-2.517,5.157-6.044,9.154-10.58,12.002c-4.534,2.843-9.771,4.267-15.708,4.267
	C427.282,261.847,422.002,260.423,417.466,257.58 M451.552,249.167c4.412-5.32,6.615-12.391,6.615-21.22
	c0-5.852-1.01-10.988-3.03-15.4c-2.021-4.41-4.906-7.855-8.658-10.333c-3.754-2.474-8.105-3.709-13.053-3.709
	c-5.03,0-9.424,1.236-13.176,3.709c-3.751,2.478-6.662,5.938-8.723,10.395c-2.062,4.452-3.092,9.566-3.092,15.338
	c0,5.775,1.029,10.87,3.092,15.279c2.061,4.413,4.989,7.836,8.781,10.271c3.797,2.432,8.209,3.646,13.242,3.646
	C441.138,257.144,447.138,254.484,451.552,249.167"/>
<path d="M518.444,259.248v-6.308c0-0.741-0.167-1.114-0.497-1.114c-0.248,0-0.578,0.207-0.99,0.618
	c-2.309,2.394-4.991,4.56-8.04,6.497c-3.052,1.937-7.095,2.904-12.124,2.904c-5.362,0-10.208-1.236-14.538-3.709
	s-7.755-6.166-10.268-11.071c-2.518-4.907-3.774-10.909-3.774-18.001c0-6.93,1.238-13.071,3.714-18.433
	c2.47-5.362,5.977-9.504,10.516-12.435c4.533-2.928,9.812-4.393,15.836-4.393c4.039,0,7.422,0.619,10.146,1.856
	c2.721,1.238,5.396,2.846,8.041,4.826c0.66,0.495,1.072,0.742,1.234,0.742c0.327,0,0.497-0.537,0.497-1.61v-29.57
	c0-0.821,0.37-1.235,1.111-1.235h2.849c0.654,0,0.987,0.372,0.987,1.115v89.199c0,0.577-0.104,0.972-0.31,1.175
	c-0.208,0.206-0.597,0.308-1.176,0.308h-1.977C518.856,260.608,518.444,260.157,518.444,259.248 M508.67,200.854
	c-3.216-1.566-6.64-2.35-10.268-2.35c-4.868,0-9.175,1.218-12.932,3.648c-3.752,2.435-6.699,5.922-8.846,10.456
	c-2.143,4.536-3.214,9.855-3.214,15.959c0,6.269,1.089,11.548,3.276,15.835c2.187,4.286,5.093,7.485,8.725,9.586
	c3.625,2.104,7.628,3.155,11.998,3.155c3.795,0,7.28-0.926,10.452-2.782c3.174-1.859,5.696-4.145,7.549-6.866
	c1.856-2.723,2.785-5.361,2.785-7.918v-31.67C515.06,204.771,511.886,202.423,508.67,200.854"/>
</svg>
