<?xml version="1.0" encoding="utf-8"?>
<!-- Generator: Adobe Illustrator 15.0.0, SVG Export Plug-In . SVG Version: 6.00 Build 0)  -->
<!DOCTYPE svg PUBLIC "-//W3C//DTD SVG 1.1//EN" "http://www.w3.org/Graphics/SVG/1.1/DTD/svg11.dtd">
<svg version="1.1" id="Layer_1" xmlns="http://www.w3.org/2000/svg" xmlns:xlink="http://www.w3.org/1999/xlink" x="0px" y="0px"
	 width="15px" height="15px" viewBox="0 0 15 15" enable-background="new 0 0 15 15" xml:space="preserve">
<path fill="#FF00CF" d="M7.5,1.5c3.309,0,6,2.691,6,6s-2.691,6-6,6s-6-2.691-6-6S4.191,1.5,7.5,1.5 M7.5,0C3.358,0,0,3.358,0,7.5
	C0,11.643,3.358,15,7.5,15c4.143,0,7.5-3.357,7.5-7.5C15,3.358,11.643,0,7.5,0L7.5,0z"/>
</svg>
